,date,views
20,2021-03-01,4928742
21,2021-03-02,9516855
22,2021-03-03,9801082
23,2021-03-04,6507933
24,2021-03-05,2990281
25,2021-03-06,2455803
26,2021-03-07,2148462
27,2021-03-08,1927584
28,2021-03-09,1323604
29,2021-03-10,1630195
30,2021-03-11,1506192
31,2021-03-12,1112765
32,2021-03-13,905239
33,2021-03-14,862326
34,2021-03-15,1904610
35,2021-03-16,2501406
36,2021-03-17,2664793
37,2021-03-18,1950683
38,2021-03-19,1449569
39,2021-03-20,1499665
40,2021-03-21,1335122
41,2021-03-22,1317686
42,2021-03-23,2051984
43,2021-03-24,2264428
44,2021-03-25,1864301
45,2021-03-26,2569893
46,2021-03-27,2546621
47,2021-03-28,1591809
48,2021-03-29,906768
49,2021-03-30,1038109
50,2021-03-31,1210251
51,2021-04-01,1262813
52,2021-04-02,2254802
53,2021-04-03,2174554
54,2021-04-04,2667636
55,2021-04-05,2302251
56,2021-04-06,1996437
57,2021-04-07,1963619
58,2021-04-08,1621046
59,2021-04-09,2458515
60,2021-04-10,2772935
61,2021-04-11,2152512
62,2021-04-12,1161151
63,2021-04-13,811890
64,2021-04-14,943398
65,2021-04-15,731224
66,2021-04-16,1340411
67,2021-04-17,1462999
68,2021-04-18,667106
69,2021-04-19,746520
70,2021-04-20,1051883
71,2021-04-21,1499438
72,2021-04-22,1999602
73,2021-04-23,2730515
74,2021-04-24,4262913
75,2021-04-25,4244375
76,2021-04-26,3817120
77,2021-04-27,5229219
78,2021-04-28,6326986
79,2021-04-29,5594729
80,2021-04-30,4751410
81,2021-05-01,4237160
82,2021-05-02,3611295
83,2021-05-03,5458110
84,2021-05-04,5138550
85,2021-05-05,4379552
86,2021-05-06,3342176
87,2021-05-07,4025754
88,2021-05-08,4049377
89,2021-05-09,3735194
90,2021-05-10,3490598
91,2021-05-11,3728585
92,2021-05-12,2389942
93,2021-05-13,1434667
94,2021-05-14,1355327
95,2021-05-15,1066623
96,2021-05-16,536783
97,2021-05-17,321723
98,2021-05-18,201931
99,2021-05-19,226124
100,2021-05-20,374703
101,2021-05-21,566290
102,2021-05-22,702376
103,2021-05-23,619459
104,2021-05-24,499744
105,2021-05-25,413440
106,2021-05-26,465404
107,2021-05-27,736278
108,2021-05-28,1215524
109,2021-05-29,1123166
110,2021-05-30,766891
111,2021-05-31,424508
112,2021-06-01,240439
113,2021-06-02,381062
114,2021-06-03,547148
115,2021-06-04,665945
116,2021-06-05,635564
117,2021-06-06,533296
118,2021-06-07,388980
119,2021-06-08,284316
120,2021-06-09,181136
121,2021-06-10,148022
122,2021-06-11,126590
123,2021-06-12,190791
124,2021-06-13,384987
125,2021-06-14,499281
126,2021-06-15,349419
127,2021-06-16,541043
128,2021-06-17,861443
129,2021-06-18,1281526
130,2021-06-19,1764605
131,2021-06-20,3912738
132,2021-06-21,3847472
133,2021-06-22,3182077
134,2021-06-23,2011030
135,2021-06-24,2250816
136,2021-06-25,4218176
137,2021-06-26,4489270
138,2021-06-27,4359642
139,2021-06-28,3495149
140,2021-06-29,4490712
141,2021-06-30,4499082
142,2021-07-01,3191208
143,2021-07-02,979839
144,2021-07-03,1464948
145,2021-07-04,1991397
146,2021-07-05,2605558
147,2021-07-06,2532914
148,2021-07-07,1647321
149,2021-07-08,785571
150,2021-07-09,785098
151,2021-07-10,766571
152,2021-07-11,734472
153,2021-07-12,602129
154,2021-07-13,273483
155,2021-07-14,365152
156,2021-07-15,807037
157,2021-07-16,1535245
158,2021-07-17,1735512
159,2021-07-18,1922969
160,2021-07-19,2863252
161,2021-07-20,2476022
162,2021-07-21,2783791
163,2021-07-22,3238722
164,2021-07-23,3204324
165,2021-07-24,2671270
166,2021-07-25,2032242
167,2021-07-26,1670470
168,2021-07-27,2095903
169,2021-07-28,2667309
170,2021-07-29,3784239
171,2021-07-30,3450259
172,2021-07-31,2350816
173,2021-08-01,1281202
174,2021-08-02,522512
175,2021-08-03,878697
176,2021-08-04,947626
177,2021-08-05,868324
178,2021-08-06,1377969
179,2021-08-07,1200786
180,2021-08-08,605244
181,2021-08-09,760024
182,2021-08-10,831300
183,2021-08-11,1349287
184,2021-08-12,1996843
185,2021-08-13,2180421
186,2021-08-14,2171699
187,2021-08-15,1699198
188,2021-08-16,2105935
189,2021-08-17,2296737
190,2021-08-18,1860234
191,2021-08-19,2125170
192,2021-08-20,4617307
193,2021-08-21,4733981
194,2021-08-22,4344000
195,2021-08-23,3000234
196,2021-08-24,2100182
197,2021-08-25,2998991
198,2021-08-26,4340627
199,2021-08-27,5609530
200,2021-08-28,6221401
201,2021-08-29,5686640
202,2021-08-30,4670844
203,2021-08-31,4849085
204,2021-09-01,2978648
205,2021-09-02,1110886
206,2021-09-03,1788376
207,2021-09-04,2371310
208,2021-09-05,2154010
209,2021-09-06,2849664
210,2021-09-07,3566297
211,2021-09-08,3430698
212,2021-09-09,2072197
213,2021-09-10,1402266
214,2021-09-11,1899566
215,2021-09-12,1794262
216,2021-09-13,1175291
217,2021-09-14,1068770
218,2021-09-15,1284276
219,2021-09-16,1139055
220,2021-09-17,1248036
221,2021-09-18,983966
222,2021-09-19,669344
223,2021-09-20,1920463
224,2021-09-21,2795075
225,2021-09-22,3589911
226,2021-09-23,5515857
227,2021-09-24,5454935
228,2021-09-25,4643507
229,2021-09-26,2925820
230,2021-09-27,1809509
231,2021-09-28,2388212
232,2021-09-29,2315160
233,2021-09-30,1436829
234,2021-10-01,692354
235,2021-10-02,835351
236,2021-10-03,729184
237,2021-10-04,442531
238,2021-10-05,643856
239,2021-10-06,895156
240,2021-10-07,772858
241,2021-10-08,759870
242,2021-10-09,552776
243,2021-10-10,428318
244,2021-10-11,324627
245,2021-10-12,276709
246,2021-10-13,270321
247,2021-10-14,272011
248,2021-10-15,479258
249,2021-10-16,938175
250,2021-10-17,1244460
251,2021-10-18,932719
252,2021-10-19,829924
253,2021-10-20,1003685
254,2021-10-21,1061936
255,2021-10-22,1646648
256,2021-10-23,2235098
257,2021-10-24,1652794
258,2021-10-25,1184645
259,2021-10-26,1933608
260,2021-10-27,2194430
261,2021-10-28,3097602
262,2021-10-29,3728886
263,2021-10-30,3545288
264,2021-10-31,1952701
265,2021-11-01,1410311
266,2021-11-02,1304010
267,2021-11-03,1238401
268,2021-11-04,1238024
269,2021-11-05,1636310
270,2021-11-06,1891597
271,2021-11-07,1713020
272,2021-11-08,1648382
273,2021-11-09,3110302
274,2021-11-10,6525300
275,2021-11-11,10076544
276,2021-11-12,9134279
277,2021-11-13,5252069
278,2021-11-14,3123619
279,2021-11-15,4268674
280,2021-11-16,5377055
281,2021-11-17,5892653
282,2021-11-18,7342849
283,2021-11-19,9235251
284,2021-11-20,9630192
285,2021-11-21,13829996
286,2021-11-22,13436508
287,2021-11-23,13895063
288,2021-11-24,15874733
289,2021-11-25,13221739
290,2021-11-26,20922329
291,2021-11-27,19045596
292,2021-11-28,15456134
293,2021-11-29,9968120
294,2021-11-30,8481941
295,2021-12-01,5423413
296,2021-12-02,2078327
297,2021-12-03,1847444
298,2021-12-04,1626680
299,2021-12-05,1129096
300,2021-12-06,646476
301,2021-12-07,1035959
302,2021-12-08,1750769
303,2021-12-09,2676009
304,2021-12-10,3065213
305,2021-12-11,4375995
306,2021-12-12,8421305
307,2021-12-13,7357276
308,2021-12-14,4207111
309,2021-12-15,3062514
310,2021-12-16,2786759
311,2021-12-17,2175905
312,2021-12-18,1349349
313,2021-12-19,946774
314,2021-12-20,982980
315,2021-12-21,899607
316,2021-12-22,907944
317,2021-12-23,763722
318,2021-12-24,646652
319,2021-12-25,1103445
320,2021-12-26,1584645
321,2021-12-27,1198834
322,2021-12-28,650279
323,2021-12-29,494114
324,2021-12-30,676014
325,2021-12-31,626802
326,2022-01-01,335101
327,2022-01-02,183633
328,2022-01-03,145652
329,2022-01-04,160268
330,2022-01-05,95471
331,2022-01-06,115415
332,2022-01-07,112577
333,2022-01-08,124580
334,2022-01-09,121544
335,2022-01-10,105130
336,2022-01-11,75106
337,2022-01-12,131002
338,2022-01-13,225200
339,2022-01-14,265468
340,2022-01-15,319725
341,2022-01-16,785438
342,2022-01-17,849100
343,2022-01-18,495131
344,2022-01-19,288074
345,2022-01-20,289193
346,2022-01-21,184977
347,2022-01-22,269959
348,2022-01-23,387594
349,2022-01-24,819985
350,2022-01-25,1108687
351,2022-01-26,826786
352,2022-01-27,1418778
353,2022-01-28,2418286
354,2022-01-29,2659515
355,2022-01-30,2647678
356,2022-01-31,2379606
357,2022-02-01,1456842
358,2022-02-02,1306089
359,2022-02-03,1043197
360,2022-02-04,1036722
361,2022-02-05,1533500
362,2022-02-06,1300530
363,2022-02-07,1055933
364,2022-02-08,1175462
365,2022-02-09,901234
366,2022-02-10,1005514
367,2022-02-11,1287257
368,2022-02-12,2313769
369,2022-02-13,3394864
370,2022-02-14,2741160
371,2022-02-15,1157486
372,2022-02-16,599755
373,2022-02-17,559565
374,2022-02-18,993013
375,2022-02-19,1288487
376,2022-02-20,1109510
377,2022-02-21,1526448
378,2022-02-22,2053001
379,2022-02-23,1555275
380,2022-02-24,2077489
381,2022-02-25,2756288
382,2022-02-26,3453266
383,2022-02-27,2832838
384,2022-02-28,1617858
385,2022-03-01,889930
386,2022-03-02,609122
387,2022-03-03,997855
388,2022-03-04,432828
389,2022-03-05,608027
390,2022-03-06,632894
391,2022-03-07,1036509
392,2022-03-08,1263092
393,2022-03-09,698319
394,2022-03-10,296231
395,2022-03-11,179900
396,2022-03-12,1287257
397,2022-03-13,543570
398,2022-03-14,423645
399,2022-03-15,533341
400,2022-03-16,497536
401,2022-03-17,533774
402,2022-03-18,1202297
403,2022-03-19,1293112
404,2022-03-20,972934
405,2022-03-21,1198451
406,2022-03-22,2318039
407,2022-03-23,2585454
408,2022-03-24,2769694
409,2022-03-25,2895255
410,2022-03-26,2377157
411,2022-03-27,2982778
412,2022-03-28,2080029
413,2022-03-29,1834465
414,2022-03-30,2705460
415,2022-03-31,4275605
416,2022-04-01,2995052
417,2022-04-02,1785210
418,2022-04-03,1310931
419,2022-04-04,1380122
420,2022-04-05,1273865
421,2022-04-06,1286913
422,2022-04-07,1660540
423,2022-04-08,1827187
424,2022-04-09,2244824
425,2022-04-10,1979751
426,2022-04-11,1457291
427,2022-04-12,1616022
428,2022-04-13,1356737
429,2022-04-14,2419379
430,2022-04-15,3544311
431,2022-04-16,3164537
432,2022-04-17,2847172
433,2022-04-18,2806817
434,2022-04-19,3923452
435,2022-04-20,4068021
436,2022-04-21,3473476
437,2022-04-22,3768811
438,2022-04-23,4449525
439,2022-04-24,5282713
440,2022-04-25,5714693
441,2022-04-26,3546227
442,2022-04-27,1846690
443,2022-04-28,1445468
444,2022-04-29,1578995
445,2022-04-30,1598778
446,2022-05-01,2089884
447,2022-05-02,1509164
448,2022-05-03,1081837
